{
  "settings": {
    "number_of_shards": 1,
    "number_of_replicas": 0,
    "analysis": {
      "analyzer": {}
    }
  },
  "mappings": {
    "properties": {
      "asset_id": {
        "type": "keyword"
      },
      "asset_name": {
        "type": "keyword"
      },
      "description": {
        "type": "text"
      }
    }
  }
}